5.000e+00,2.000e-02,2.000e-02,3.300e-01,6.600e-01,3.300e-01,6.600e-01,3.300e-01,6.600e-01,3.300e-01,6.600e-01,0.000e+00
2.000e+00,2.000e-02,2.000e-02,3.300e-01,6.600e-01,3.300e-01,6.600e-01,3.300e-01,6.600e-01,3.300e-01,6.600e-01,0.000e+00
1.000e+01,2.000e-02,2.000e-02,3.300e-01,6.600e-01,3.300e-01,6.600e-01,3.300e-01,6.600e-01,3.300e-01,6.600e-01,0.000e+00
5.000e+00,5.000e-02,5.000e-02,3.300e-01,6.600e-01,3.300e-01,6.600e-01,3.300e-01,6.600e-01,3.300e-01,6.600e-01,0.000e+00
5.000e+00,1.000e-01,1.000e-01,3.300e-01,6.600e-01,3.300e-01,6.600e-01,3.300e-01,6.600e-01,3.300e-01,6.600e-01,0.000e+00
5.000e+00,2.000e-02,5.000e-02,3.300e-01,6.600e-01,3.300e-01,6.600e-01,3.300e-01,6.600e-01,3.300e-01,6.600e-01,0.000e+00
5.000e+00,2.000e-02,1.000e-01,3.300e-01,6.600e-01,3.300e-01,6.600e-01,3.300e-01,6.600e-01,3.300e-01,6.600e-01,0.000e+00
5.000e+00,2.000e-02,2.000e-02,1.500e-01,3.000e-01,5.000e-02,4.000e-01,1.500e-01,3.000e-01,5.000e-02,4.000e-01,0.000e+00
5.000e+00,2.000e-02,2.000e-02,3.300e-01,6.600e-01,3.300e-01,6.600e-01,1.000e-01,8.000e-01,4.000e-01,6.000e-01,0.000e+00
5.000e+00,2.000e-02,2.000e-02,3.300e-01,6.600e-01,3.300e-01,6.600e-01,3.300e-01,6.600e-01,3.300e-01,6.600e-01,2.000e+01
5.000e+00,2.000e-02,2.000e-02,3.300e-01,6.600e-01,3.300e-01,6.600e-01,3.300e-01,6.600e-01,3.300e-01,6.600e-01,4.000e+01
